<svg width="21" height="20" viewBox="0 0 21 20" fill="none" xmlns="http://www.w3.org/2000/svg">
<path d="M19.0293 17.6562C19.0293 18.0877 18.6769 18.4375 18.2423 18.4375H17.4552V19.2188C17.4552 19.6502 17.1029 20 16.6682 20C16.2335 20 15.8811 19.6502 15.8811 19.2188V18.4375H15.0941C14.6594 18.4375 14.3071 18.0877 14.3071 17.6562C14.3071 17.2248 14.6594 16.875 15.0941 16.875H15.8811V16.0938C15.8811 15.6623 16.2335 15.3125 16.6682 15.3125C17.1029 15.3125 17.4552 15.6623 17.4552 16.0938V16.875H18.2423C18.6769 16.875 19.0293 17.2248 19.0293 17.6562ZM19.0293 5.46875V12.9688C19.0293 13.4002 18.6769 13.75 18.2423 13.75C17.8076 13.75 17.4552 13.4002 17.4552 12.9688V6.25H15.8811V8.59375C15.8811 9.02523 15.5288 9.375 15.0941 9.375C14.6594 9.375 14.3071 9.02523 14.3071 8.59375V6.25H6.75152V8.59375C6.75152 9.02523 6.39916 9.375 5.96448 9.375C5.5298 9.375 5.17744 9.02523 5.17744 8.59375V6.25H3.60337V18.4375H11.946C12.3806 18.4375 12.733 18.7873 12.733 19.2188C12.733 19.6502 12.3806 20 11.946 20H2.81633C2.38165 20 2.0293 19.6502 2.0293 19.2188V5.46875C2.0293 5.03727 2.38165 4.6875 2.81633 4.6875H5.21467C5.52732 2.05168 7.79131 0 10.5293 0C13.2673 0 15.5313 2.05168 15.8439 4.6875H18.2423C18.6769 4.6875 19.0293 5.03727 19.0293 5.46875ZM14.2543 4.6875C13.9537 2.91621 12.3978 1.5625 10.5293 1.5625C8.66075 1.5625 7.10494 2.91621 6.80429 4.6875H14.2543Z" fill="white"/>
</svg>
