<svg width="944" height="159" viewBox="0 0 944 159" fill="none" xmlns="http://www.w3.org/2000/svg">
<path fill-rule="evenodd" clip-rule="evenodd" d="M759.899 131.989C759.6 131.989 759.3 132.175 759.3 132.175C752.418 131.804 753.315 131.989 752.717 131.247C760.497 131.618 758.702 131.432 759.899 131.989Z" fill="#F1F1F1"/>
<path fill-rule="evenodd" clip-rule="evenodd" d="M742.542 131.99C736.856 131.618 738.053 131.804 737.155 131.433C738.352 131.247 741.345 131.618 742.542 131.99Z" fill="#F1F1F1"/>
<path fill-rule="evenodd" clip-rule="evenodd" d="M385.832 18.1927C365.184 20.4204 367.877 18.1927 346.331 19.6778C327.478 20.7916 336.755 19.6778 327.478 20.2347C325.982 20.4204 294.261 22.8337 293.064 23.0193C279.897 25.247 277.503 22.2767 267.029 24.1331C265.533 24.3188 264.037 24.5044 262.54 24.69C262.54 24.69 262.54 24.69 262.241 24.69C261.942 24.69 261.643 24.69 261.343 24.69C261.044 24.69 261.044 24.69 260.745 24.69C260.446 24.69 260.146 24.69 259.847 24.69C259.548 24.69 259.548 24.69 259.249 24.69C258.949 24.69 258.65 24.69 258.351 24.69L258.051 24.69C257.453 24.69 257.154 24.69 256.854 24.5044L256.555 24.5044C256.256 24.5044 256.256 24.5044 255.957 24.5044L255.657 24.5044L255.358 24.5044L255.059 24.5044C255.059 24.5044 255.059 24.5044 254.76 24.5044C254.76 24.5044 254.76 24.5044 254.46 24.3188L254.46 24.1331C254.46 24.1331 254.76 24.1331 254.76 23.9475L255.059 23.9475C255.059 23.9475 255.358 23.9475 255.657 23.9475L255.957 23.9475C256.256 23.9475 256.555 23.9475 256.555 23.9475C256.854 23.9475 256.854 23.9475 257.154 23.9475C257.453 23.9475 257.752 23.9475 258.351 23.9475C258.65 23.9475 258.65 23.9475 258.949 23.9475C259.548 23.9475 260.146 23.9475 261.044 23.9475C265.533 23.9475 394.511 14.4799 406.481 18.3783C404.685 18.564 402.89 18.564 401.693 18.7496C394.81 19.6778 394.511 17.4501 385.832 18.1927Z" fill="#F1F1F1"/>
<path fill-rule="evenodd" clip-rule="evenodd" d="M437.903 146.284C433.115 146.84 428.626 145.912 423.838 145.912C422.641 145.912 422.341 144.984 422.042 144.427C421.144 142.385 421.144 142.571 439.399 142.385C441.793 142.385 444.486 142.571 446.88 142.571C447.179 142.571 447.479 143.128 447.778 143.313C438.501 143.87 450.471 145.727 447.778 143.313C447.778 143.313 451.369 144.427 468.726 144.613C471.12 144.613 473.813 144.613 475.908 145.17C478.302 145.727 480.995 144.798 483.389 145.541C484.586 145.912 485.484 145.355 486.382 145.17C487.279 144.984 500.447 144.613 502.841 145.541C513.015 149.068 525.584 146.469 535.459 147.583C541.444 148.326 544.138 147.769 542.342 148.326C542.043 148.326 541.743 148.511 541.743 148.511C539.649 148.14 537.554 147.954 535.459 148.697C532.167 149.625 517.504 147.397 511.818 148.697C511.22 148.882 510.621 148.697 510.322 148.697C503.738 147.583 493.564 149.625 486.681 147.954C483.688 147.212 449.873 147.954 442.99 146.655C440.895 146.098 439.399 146.098 437.903 146.284Z" fill="#F1F1F1"/>
<path fill-rule="evenodd" clip-rule="evenodd" d="M500.147 19.4922C494.461 18.0071 430.72 18.007 423.538 18.7496C420.546 19.1209 417.553 18.564 414.561 17.8214C404.685 15.2225 442.092 16.3363 480.097 15.0368C484.885 14.8512 489.374 15.965 494.162 15.7794C494.761 15.7794 495.359 15.965 495.658 16.1507C500.746 18.0071 509.125 17.0789 512.417 18.1927C510.621 20.0491 510.621 19.8634 500.147 19.4922Z" fill="#F1F1F1"/>
<path fill-rule="evenodd" clip-rule="evenodd" d="M395.409 147.026C406.182 147.769 421.743 147.954 422.641 147.583C425.035 146.841 427.429 147.397 430.122 147.397C435.21 147.212 435.808 148.326 440.297 148.883C443.589 149.254 444.786 149.068 444.187 149.996C442.691 151.482 432.816 150.368 428.925 150.925C428.925 150.925 427.728 150.182 424.437 149.996C408.875 149.996 407.08 149.44 402.89 150.182C397.204 150.925 397.204 148.511 391.818 148.697C383.439 149.44 388.825 146.655 395.409 147.026Z" fill="#F1F1F1"/>
<path fill-rule="evenodd" clip-rule="evenodd" d="M597.404 140.9C597.404 141.086 596.507 142.014 595.908 142.2C593.215 142.757 590.821 141.828 590.821 141.457C590.522 140.343 595.609 140.9 597.404 140.9Z" fill="#F1F1F1"/>
<path fill-rule="evenodd" clip-rule="evenodd" d="M318.8 152.595C319.099 153.152 318.8 153.152 317.902 152.781C317.603 152.595 317.304 152.781 317.004 152.595C317.304 152.41 318.8 152.224 318.8 152.595Z" fill="#F1F1F1"/>
<path fill-rule="evenodd" clip-rule="evenodd" d="M280.496 151.853C286.78 152.781 309.822 151.296 310.72 151.11C313.413 150.553 315.508 151.11 317.304 152.595C311.019 154.266 313.713 151.667 304.735 152.967C293.064 154.637 296.057 152.224 269.124 153.524C269.124 153.524 270.321 152.967 271.817 152.595C274.511 151.667 277.503 151.482 280.496 151.853Z" fill="#F1F1F1"/>
<path fill-rule="evenodd" clip-rule="evenodd" d="M800.298 54.7636C798.802 54.3923 798.802 54.578 800.298 54.0211C801.495 53.4641 802.692 54.0211 803.59 54.2067C801.495 54.578 802.094 55.3205 800.298 54.7636Z" fill="#F1F1F1"/>
<path fill-rule="evenodd" clip-rule="evenodd" d="M811.071 53.8353C809.575 54.2066 807.779 53.6496 806.283 54.3922C805.385 54.7635 804.487 54.5778 803.29 54.3922C804.787 54.2066 806.283 54.2066 807.48 53.6496C809.575 52.7214 813.465 53.2784 811.071 53.8353Z" fill="#F1F1F1"/>
<path fill-rule="evenodd" clip-rule="evenodd" d="M797.605 58.4763C797.006 58.4763 795.809 57.9194 795.51 57.5481C804.787 56.4343 811.37 58.2907 797.605 58.4763Z" fill="#F1F1F1"/>
<path fill-rule="evenodd" clip-rule="evenodd" d="M366.381 150.925C372.067 151.11 370.87 150.553 384.337 151.482C385.833 151.482 384.935 152.967 382.84 152.781C366.98 152.224 365.184 152.039 363.09 152.41C360.097 152.781 357.105 152.781 354.411 152.224C349.623 152.039 349.623 152.41 348.426 150.925C346.631 148.883 362.192 150.739 366.381 150.925Z" fill="#F1F1F1"/>
<path fill-rule="evenodd" clip-rule="evenodd" d="M831.42 68.6865C831.42 69.0578 829.924 69.2434 829.326 69.2434C828.727 69.0578 828.428 68.8721 827.829 68.8721C829.326 67.5727 831.121 68.1296 831.42 68.6865Z" fill="#F1F1F1"/>
<path fill-rule="evenodd" clip-rule="evenodd" d="M532.766 153.524C530.671 153.152 528.876 152.967 527.38 152.781C528.577 152.224 531.27 152.595 532.766 153.524Z" fill="#F1F1F1"/>
<path fill-rule="evenodd" clip-rule="evenodd" d="M511.818 152.595C516.606 151.11 536.656 155.566 496.556 152.781C495.659 152.781 495.359 152.595 495.659 152.41C496.556 152.039 510.621 152.967 511.818 152.595Z" fill="#F1F1F1"/>
<path fill-rule="evenodd" clip-rule="evenodd" d="M522.292 152.781C523.489 152.224 525.883 152.41 527.379 152.781C526.482 153.152 524.985 154.081 522.891 153.524C520.796 152.967 521.394 153.152 522.292 152.781Z" fill="#F1F1F1"/>
<path fill-rule="evenodd" clip-rule="evenodd" d="M732.068 50.4938C730.871 49.9369 732.368 49.38 734.163 50.1225C733.864 50.4938 732.667 50.8651 732.068 50.4938Z" fill="#F1F1F1"/>
<path fill-rule="evenodd" clip-rule="evenodd" d="M743.739 50.4938C738.652 49.9368 738.053 52.3501 734.163 50.3081C738.652 47.3379 738.053 50.1225 744.936 49.5656C746.133 49.3799 747.63 50.1225 748.827 49.9368C749.724 49.9368 749.724 49.7512 749.425 50.1225C746.433 50.3081 747.33 50.865 743.739 50.4938Z" fill="#F1F1F1"/>
<path fill-rule="evenodd" clip-rule="evenodd" d="M437.005 154.637C429.823 154.637 431.319 154.823 430.421 154.081C431.319 153.895 429.823 153.709 437.005 154.637Z" fill="#F1F1F1"/>
<path fill-rule="evenodd" clip-rule="evenodd" d="M846.981 80.9387C847.281 80.9387 847.281 80.753 847.58 80.753C849.974 80.5674 849.375 81.6812 846.981 80.9387Z" fill="#F1F1F1"/>
<path fill-rule="evenodd" clip-rule="evenodd" d="M0.0958221 35.2714C2.78906 24.6899 -1.69977 24.3187 2.48981 20.7915C13.5621 10.9526 18.6495 20.2346 39.5972 18.0069C45.5823 17.2644 50.071 17.6356 46.1807 15.2223C39.8964 11.5096 49.4725 13.1803 54.2606 11.5096C61.7419 8.91061 56.6546 5.5691 60.2457 5.01218C66.53 3.89835 68.9239 4.45526 71.318 2.22759C74.0112 -7.69311e-05 105.732 -7.41579e-05 110.52 -7.37394e-05C116.804 -7.319e-05 107.827 4.45527 112.316 6.31166C116.804 8.16805 118.6 6.4973 120.096 8.72497C120.695 9.65317 121.293 11.8808 121.593 12.0665C126.979 15.9649 125.782 12.9947 131.767 16.1505C137.154 18.7495 146.73 19.4921 151.219 19.3064C161.692 18.7495 163.488 18.9351 164.386 19.4921C165.283 20.049 162.291 22.2766 165.882 23.3905C167.677 23.9474 169.772 24.133 170.969 24.8756C172.466 25.8038 174.261 26.1751 176.056 26.1751C178.45 26.1751 180.246 27.2889 182.341 27.1033C185.633 26.732 188.924 27.2889 192.216 27.4745C199.697 27.6602 199.398 30.0735 203.288 28.774C207.478 27.4745 211.967 28.5884 214.66 28.774C217.054 28.9597 219.149 28.9597 221.244 29.1453C221.842 29.1453 222.74 29.1453 223.338 29.1453C224.835 29.1453 226.032 29.1453 227.528 29.3309C228.426 29.3309 229.024 29.3309 229.922 29.3309C231.119 29.3309 232.316 29.3309 233.513 29.3309C234.411 29.3309 235.009 29.3309 235.608 29.3309C236.805 29.3309 238.002 29.3309 239.199 29.3309C239.797 29.3309 240.396 29.3309 241.294 29.3309C242.79 29.3309 243.987 29.1453 245.184 29.1453C245.483 29.1453 246.082 29.1453 246.381 29.1453C248.176 28.9597 249.673 28.9597 251.468 28.774C252.067 28.774 252.964 28.5884 253.563 28.5884C254.461 28.5884 255.359 28.4027 256.256 28.4027C257.154 28.4027 258.052 28.2171 258.95 28.2171C259.548 28.2171 260.446 28.0315 261.044 28.0315C270.92 27.1033 279.897 25.9894 290.072 25.8038C293.663 25.6182 293.663 26.5464 297.254 25.9894C305.034 24.8756 309.823 27.8458 318.202 24.69C319.099 24.3187 323.588 23.0192 325.683 24.69C328.376 26.9176 337.952 27.1033 341.244 26.5464C345.733 25.8038 345.733 27.8458 348.725 28.0315C349.623 28.0315 491.768 26.732 468.726 25.4325C456.157 24.69 456.157 24.69 454.062 24.8756C438.801 26.3607 424.137 24.5043 396.007 25.2469C392.117 25.4325 388.227 25.6182 384.336 25.0612C368.177 25.8038 365.184 26.1751 364.885 23.5761C364.885 22.6479 365.184 22.2767 366.381 22.2767C369.075 22.2767 372.067 21.5341 374.461 22.6479C377.753 24.1331 384.636 24.1331 387.329 22.091C389.125 20.7915 391.818 22.091 392.716 22.2767C399.299 24.1331 399.898 21.3485 403.788 21.5341C415.758 21.9054 416.656 21.3485 417.853 22.8336C417.853 23.0192 419.05 23.0192 419.349 22.8336C421.145 21.7197 423.239 21.5341 425.334 21.7197C435.509 22.091 435.209 21.3485 437.604 21.9054C442.691 23.2049 444.786 22.091 454.062 22.6479C468.127 23.5761 471.12 21.3485 475.309 23.0192C475.609 23.2049 489.674 24.1331 489.973 24.1331C495.06 26.1751 498.352 23.5761 506.132 24.3187C508.826 24.5043 511.519 25.2469 514.212 25.4325C524.088 25.9895 557.903 24.1331 560.596 25.9895C560.896 26.3607 559.998 26.9177 559.1 26.9177C557.903 26.9177 557.005 26.732 555.808 26.732C555.509 26.732 555.21 27.4746 555.509 27.4746C556.407 27.4746 576.158 28.4028 569.275 29.8879C572.567 32.6725 583.04 30.2592 588.726 32.1156C586.931 33.2294 590.821 32.4868 570.173 33.6007C553.115 34.7145 550.422 31.5586 528.876 33.6007C523.489 37.3135 523.489 37.1278 524.088 37.4991C524.387 37.6847 524.985 38.056 525.285 38.056C530.372 37.4991 535.758 38.056 540.846 37.3135C541.744 37.1278 542.641 37.3135 543.24 37.3135C561.494 39.7268 617.754 36.3853 617.155 40.0981C616.856 41.9544 603.689 40.2837 594.113 41.7688C588.427 41.0262 582.442 42.3257 576.756 41.7688C575.26 41.5832 573.464 42.3257 571.968 42.5114C571.37 42.5114 573.165 43.6252 574.063 43.6252C583.34 44.5534 586.631 42.5114 592.018 43.9965C593.514 44.3678 599.499 46.2241 602.193 46.2241C618.652 46.2241 628.228 46.7811 628.527 46.7811C632.118 46.7811 629.724 49.0087 633.016 49.0087C643.19 49.38 644.088 49.1944 645.884 50.1226C651.27 52.5359 650.672 51.979 657.255 52.1646L658.452 51.979C659.051 48.2662 658.452 48.6375 667.729 49.38C672.218 49.7513 677.006 50.6795 681.495 50.6795C682.093 50.6795 681.195 51.2364 681.195 51.0508C678.502 50.4939 676.707 52.1646 674.013 51.7933C672.218 51.422 670.123 51.7933 668.328 51.422C666.233 51.0508 664.437 51.6077 662.642 52.1646C663.24 52.5359 663.539 53.2784 664.138 53.2784C668.926 53.6497 692.268 53.4641 694.063 53.2784C697.954 53.0928 701.844 53.8354 705.435 54.021C709.325 54.2066 713.215 53.4641 717.106 53.8354C725.485 54.5779 734.762 53.0928 754.213 53.2784C763.191 51.7933 770.373 54.2066 774.562 53.2784C781.445 51.7933 779.65 54.5779 786.532 54.021C790.722 53.8354 794.912 53.4641 799.101 54.3923C796.707 55.5061 794.313 56.2487 795.809 57.3625C788.627 58.2907 770.373 56.8056 766.782 57.5482C763.789 58.1051 763.789 57.7338 749.126 56.9912C748.827 57.7338 749.425 59.2189 745.834 59.4045L745.236 59.7758L744.338 59.5902C744.338 60.1471 743.739 60.8897 745.535 61.0753C746.133 61.0753 758.103 61.8179 758.702 61.8179C764.388 60.704 775.759 61.8179 775.759 61.8179C778.752 61.0753 797.006 60.5184 797.904 60.5184C794.313 62.1891 787.729 62.5604 782.941 62.5604C772.767 62.5604 773.066 62.7461 773.066 62.7461C772.767 68.6865 785.934 62.5604 792.517 66.4588C796.109 66.6445 799.7 66.6445 803.291 66.8301C814.363 67.7583 812.567 65.9019 817.056 67.0158C820.348 67.7583 824.238 67.7583 827.53 68.5009C826.632 69.2434 825.735 69.6147 824.238 69.4291C814.662 68.8721 817.954 69.8003 813.465 69.6147C808.976 69.4291 804.787 69.0578 800.298 68.8721C799.101 69.4291 797.605 69.4291 796.408 69.2434C787.43 68.5009 770.074 70.9142 774.862 72.5849C785.036 76.1121 772.168 76.4834 792.817 77.7828C795.211 77.9685 798.203 77.4116 799.4 77.7828C804.787 80.0105 822.443 80.1961 826.034 80.3818C823.041 81.1243 820.049 79.6392 815.261 81.1243C814.662 81.31 813.764 81.1243 812.867 81.1243C810.772 81.1243 809.874 82.2382 810.473 82.6095C811.969 83.5377 813.465 84.2802 814.961 85.0228C791.021 88.9212 840.697 87.6217 845.485 89.6637C847.879 90.5919 850.872 89.6637 853.565 89.6637C854.463 89.6637 855.66 90.035 856.558 90.4063C870.024 90.5919 878.403 91.8914 879.6 92.634C872.717 92.634 871.52 93.5622 869.725 92.2627C866.433 91.8914 862.842 90.9632 859.55 92.2627C855.959 94.3047 853.266 96.3468 849.076 95.4186C843.69 94.1191 846.084 96.718 838.004 96.3468C831.121 95.7898 829.924 96.1611 829.026 96.718C827.53 97.8319 825.435 97.8319 823.64 97.275C821.844 96.718 811.969 94.8616 811.071 95.7898C808.976 97.4606 805.984 97.6462 802.991 97.8319C799.101 98.2031 799.4 99.8739 800.298 100.06C804.488 100.616 803.291 100.245 804.188 101.173C811.969 102.287 818.552 101.916 822.144 102.473C824.538 102.844 826.932 103.215 829.326 102.658C829.924 102.473 831.121 102.473 831.72 102.844C835.61 104.144 837.106 103.03 848.777 103.215C852.368 103.215 848.179 105.257 843.39 104.515C842.792 104.329 816.458 104.701 816.757 105.072C815.859 105.257 816.158 106.186 814.662 106C808.677 105.072 813.465 105.072 805.086 105.443C798.503 105.814 808.378 106.557 788.328 105.072C785.934 105.443 785.335 104.886 780.248 105.072C779.051 105.072 778.752 107.114 782.044 107.485C786.832 108.042 791.62 108.785 796.707 108.97C802.393 109.342 808.378 108.97 813.764 110.084C814.363 110.27 814.961 110.27 815.261 110.084C817.954 109.527 820.647 110.827 823.341 110.641C825.735 110.455 836.807 111.012 838.004 111.198C840.099 111.569 842.493 110.641 844.588 111.384C848.478 112.869 849.076 108.599 858.353 114.354C867.929 114.354 867.331 113.797 869.425 114.725C873.615 116.396 876.308 113.24 882.293 116.767C882.892 117.138 882.293 118.067 881.096 118.067C879.002 118.252 877.505 115.282 872.119 117.138C867.331 118.995 858.054 118.067 851.171 117.51C844.887 117.138 849.675 117.695 841.595 117.695C833.216 117.881 819.75 116.21 814.662 116.767C813.166 116.953 811.071 116.953 809.874 116.581C806.582 115.839 798.203 116.767 792.817 116.21C789.525 115.839 786.532 117.138 783.241 116.396C782.044 116.025 780.248 117.324 779.65 118.252C778.752 120.294 794.313 119.18 799.999 120.48C802.991 121.222 805.984 120.109 808.976 120.109C815.261 120.294 825.136 121.037 830.523 121.408C833.216 121.594 832.917 122.522 835.311 123.264C846.383 126.049 850.573 124.193 856.258 125.863L870.323 125.863C874.214 125.863 877.805 126.606 881.695 126.42C882.293 126.42 883.191 126.792 883.79 126.977C885.884 127.349 885.286 128.648 886.184 129.576C899.949 131.247 901.146 130.69 905.635 131.804C905.934 131.989 906.832 131.989 907.131 131.804C911.022 130.133 914.912 131.99 919.101 131.433C924.488 130.69 929.575 131.247 934.663 131.804C946.333 132.918 945.136 131.804 952.618 132.546C955.012 132.732 953.815 134.588 952.618 134.774C945.136 135.702 945.136 134.403 925.386 134.774C914.313 134.96 918.503 134.217 905.635 134.217C900.548 136.816 894.862 134.774 884.687 136.816C879.899 137.744 869.126 135.702 863.44 135.702C855.361 133.846 851.77 136.445 847.281 134.403C846.383 134.032 845.186 134.032 843.989 134.217C834.114 135.517 830.223 132.732 814.662 132.918C810.473 132.918 806.582 131.989 802.393 132.175C799.101 132.361 795.809 131.804 792.517 131.433C787.729 132.361 784.737 129.576 778.153 129.576C773.066 129.576 762.293 127.349 750.921 128.834C743.739 129.576 744.637 126.792 738.951 127.905C728.477 129.762 724.886 125.121 719.799 129.576C719.201 130.133 719.201 131.433 715.31 131.247C708.128 130.876 712.318 134.96 708.727 134.96C653.066 135.517 621.345 133.66 614.462 134.96C613.564 135.145 612.068 135.145 611.17 134.96C604.287 134.032 589.923 134.588 588.128 135.145C580.946 137.002 619.549 136.074 622.542 136.816C628.228 138.116 625.235 138.116 633.614 137.559C639.001 137.187 637.205 136.074 642.293 136.816C648.577 137.559 652.766 137.002 655.46 138.487C646.183 139.415 654.263 138.858 635.11 139.601C622.841 140.158 621.345 139.044 615.659 140.343C612.068 141.086 613.265 139.786 603.39 140.529C593.514 141.086 598.302 140.343 595.31 139.972C591.12 139.601 588.128 139.044 583.938 139.601C581.544 139.972 582.143 141.828 578.851 141.828C577.953 141.828 557.305 141.457 556.407 141.457C546.532 142.385 540.247 139.786 530.97 139.786C507.629 139.786 508.526 141.086 504.935 139.415C501.644 137.93 493.863 138.487 492.965 138.487C478.003 140.343 445.085 137.373 387.329 139.972C385.234 139.972 383.738 140.529 382.541 141.643C388.227 143.87 387.928 141.457 392.716 142.014C396.307 142.385 399.898 142.385 403.189 141.643C404.386 141.457 405.883 141.271 407.08 141.457C412.765 142.571 425.334 140.715 407.977 144.799C404.386 145.727 404.985 144.799 401.693 144.613C363.688 142.571 379.848 144.984 362.491 145.17C354.71 145.355 356.506 147.398 350.82 146.841C346.032 146.469 346.331 147.398 340.945 146.469C339.449 146.098 332.266 145.912 333.763 144.799C334.062 144.613 334.361 144.242 334.661 144.242C337.653 143.87 341.244 141.457 334.361 141.086C324.187 140.714 323.887 143.499 319.399 143.128C316.406 142.942 314.012 143.87 311.319 143.87C308.925 143.87 313.713 146.469 310.122 146.841C306.231 147.212 302.64 147.583 298.75 146.469C295.159 145.355 295.758 146.469 286.481 145.912C285.583 145.912 274.511 144.242 271.219 144.427C267.927 144.427 264.336 144.427 260.446 144.242C259.847 144.242 259.249 144.242 258.95 144.242C258.351 144.242 257.453 144.242 256.855 144.056C256.556 144.056 256.256 144.056 256.256 144.056C251.169 143.87 246.082 143.499 241.294 143.313C240.994 143.313 240.994 143.313 240.695 143.313C239.797 143.313 238.9 143.313 238.002 143.313C237.703 143.313 237.703 143.313 237.403 143.313C236.506 143.313 235.608 143.313 234.71 143.313L234.411 143.313C233.513 143.313 232.316 143.313 231.418 143.313L231.119 143.313C230.221 143.313 229.623 143.313 228.725 143.499C228.426 143.499 228.126 143.499 228.126 143.499C227.528 143.499 226.929 143.685 226.331 143.685C226.032 143.685 225.732 143.685 225.732 143.87C225.134 143.87 224.835 144.056 224.236 144.056C223.937 144.056 223.937 144.056 223.638 144.242C223.039 144.427 222.441 144.613 221.842 144.799C212.865 147.769 111.119 147.397 93.1634 148.14C87.7769 148.326 86.8791 144.242 77.9015 145.17C71.6172 145.727 65.3329 145.17 58.7494 145.541C57.2531 145.541 56.0561 145.17 55.1583 144.427C51.5672 141.086 51.2681 143.87 46.7793 142.014C48.5748 140.9 54.5598 140.9 53.3628 138.301C53.0635 137.559 54.5598 137.002 53.3628 136.445C44.9837 132.175 48.5748 132.732 39.298 132.361C38.4002 132.361 37.5024 131.247 38.1009 130.69C40.495 128.834 46.7792 126.792 29.4225 126.049C25.5323 125.863 27.9263 123.821 25.5323 122.707C22.5398 121.408 29.1233 120.851 25.8316 118.438C22.839 116.024 24.6346 114.911 26.1308 114.725C31.2181 113.797 35.1084 114.168 39.5972 110.27C41.3928 108.785 40.1957 107.485 40.1957 106.928C40.1957 103.958 36.6046 105.257 34.2106 102.473C32.7143 100.616 33.0136 98.9456 35.7069 97.6462C37.2031 96.9036 38.1009 95.7898 39.8964 95.2329C42.5897 94.119 35.1084 92.8195 33.0136 92.4483C30.3204 91.8913 23.7368 89.6637 26.1309 88.5498C30.6196 86.5078 31.5174 86.3222 30.6196 85.5796C29.4226 84.4658 25.8316 84.4658 26.1309 83.9089C27.0286 82.2381 38.9986 82.9807 53.662 81.3099C55.7568 81.1243 54.2606 79.8248 54.2606 77.7828C54.5599 74.6269 46.48 76.6689 37.2031 76.112C30.9188 75.7407 29.4225 75.7407 29.7218 74.9982C31.5173 72.2136 45.8815 74.07 45.283 71.2854C45.283 70.3572 42.889 70.5428 40.4949 70.3572C37.5024 69.9859 32.1158 69.0577 33.9114 67.9439C37.2031 65.7162 38.9987 66.4588 42.8889 66.6444C45.5822 66.6444 46.48 63.3029 43.1882 62.1891C37.5024 60.147 36.3054 61.0752 33.6122 60.704C27.0286 59.5901 33.3129 49.5656 22.2405 50.8651C18.6495 51.2363 16.5547 51.7933 11.1682 49.7512C3.38763 46.9666 8.17559 45.2959 2.4898 41.3975C0.0957608 38.6129 -0.203433 36.5708 0.0958221 35.2714ZM766.482 108.042C766.183 107.671 765.884 107.114 766.782 106.557C765.884 107.114 765.884 107.671 766.482 108.042ZM758.103 112.869C755.41 112.126 756.009 112.312 754.812 112.869C755.111 114.725 759.899 113.426 758.103 112.869ZM517.504 37.4991C516.307 36.9422 514.512 36.7565 514.512 37.8704C517.205 38.056 516.307 38.056 517.504 37.4991Z" fill="#F1F1F1"/>
<path fill-rule="evenodd" clip-rule="evenodd" d="M177.254 155.194C179.648 155.38 182.341 155.009 184.735 155.566C187.428 156.123 189.523 154.637 191.917 154.823C197.004 155.194 199.997 154.823 202.69 154.638C218.551 152.781 221.543 154.823 229.922 153.895C243.389 152.41 238.6 154.452 252.965 153.152C266.73 151.853 262.241 157.608 245.483 154.452C223.638 156.308 238.301 154.266 225.134 155.194C224.236 155.194 212.266 155.937 206.281 155.937C198.8 155.937 193.713 157.793 190.121 156.865C183.837 155.194 186.231 157.608 176.057 157.236C168.575 156.865 173.962 155.009 177.254 155.194Z" fill="#F1F1F1"/>
<path fill-rule="evenodd" clip-rule="evenodd" d="M112.016 157.051L124.286 156.123C132.665 155.38 138.351 157.793 136.555 158.536C135.657 158.907 104.535 159.65 105.433 157.793C106.031 156.123 108.725 157.051 112.016 157.051Z" fill="#F1F1F1"/>
<path fill-rule="evenodd" clip-rule="evenodd" d="M84.186 157.422C87.1786 157.051 90.1711 156.308 93.1636 156.865C97.6524 157.422 98.5502 156.494 100.346 157.422C100.645 157.608 99.4479 158.164 98.5502 157.979C96.7546 157.793 94.6599 157.607 92.8644 157.979C87.1786 158.536 81.4928 157.793 84.186 157.422Z" fill="#F1F1F1"/>
<path fill-rule="evenodd" clip-rule="evenodd" d="M83.5874 157.793C82.9889 158.35 82.0912 158.907 81.1934 158.35C80.8941 158.165 81.7919 157.608 83.5874 157.793Z" fill="#F1F1F1"/>
</svg>
