<svg width="18" height="17" viewBox="0 0 18 17" fill="none" xmlns="http://www.w3.org/2000/svg">
<path d="M8.29968 5.67996L8.2998 5.68017L8.29987 5.68029L8.69152 6.36011L9.14221 5.71698L8.73274 5.43004L9.14226 5.71692L9.14232 5.71683L9.14247 5.71661L9.14293 5.71595L9.14445 5.71378L9.14985 5.70601L9.17007 5.67672C9.18771 5.65105 9.21366 5.61305 9.24774 5.56248C9.31591 5.46134 9.41663 5.30992 9.54861 5.10633C9.81256 4.69913 10.2015 4.08321 10.7051 3.24329C11.1711 2.46598 12.2969 1.21691 13.5398 0.715873C14.1455 0.471701 14.7417 0.419001 15.3029 0.639286C15.8676 0.860934 16.4806 1.39175 17.0498 2.48409C18.1125 4.52349 17.1756 6.92775 15.4241 9.35847C14.218 11.0323 12.7263 12.5878 11.4564 13.912C10.8941 14.4984 10.3753 15.0394 9.94403 15.5252C9.32117 16.2269 8.78926 16.4654 8.3598 16.4963C7.92546 16.5277 7.48785 16.3547 7.04036 16.0106C6.2444 15.3986 5.58731 14.3873 5.08164 13.6091C5.0014 13.4856 4.92498 13.368 4.85242 13.2588C4.76689 13.1301 4.64677 12.9564 4.50075 12.7453C3.75858 11.6724 2.3472 9.63201 1.40625 7.60249C0.840017 6.38118 0.480157 5.23583 0.500841 4.34833C0.510956 3.91436 0.611508 3.57182 0.79531 3.31086C0.975834 3.05456 1.26734 2.8331 1.74218 2.69144C3.78893 2.08082 5.4055 2.80091 6.54388 3.70815C7.11514 4.16342 7.55743 4.66063 7.85725 5.04552C8.00667 5.23733 8.11938 5.39955 8.19382 5.51223C8.231 5.56853 8.25854 5.61232 8.27624 5.64109C8.28508 5.65547 8.29146 5.66609 8.29535 5.67262L8.2993 5.67932L8.2995 5.67964L8.29968 5.67996Z" stroke="#ED6EA6"/>
<path d="M9 5.03217C8.82373 5.3003 8.73273 5.43015 8.73273 5.43015C8.73273 5.43015 6.10462 0.868288 1.59925 2.2124C-2.54257 3.44806 2.482 10.7076 4.09775 13.0421C4.2396 13.247 4.35517 13.414 4.43595 13.5356C4.50336 13.6371 4.57605 13.7492 4.65384 13.8693C5.53751 15.2326 7.07947 17.6118 9 16.8547V5.03217Z" fill="#E966A0"/>
</svg>
