<svg width="1008" height="726" viewBox="0 0 1008 726" fill="none" xmlns="http://www.w3.org/2000/svg">
<path d="M1000.59 0.362576C1003.46 0.0173258 1005.97 0.0156973 1008 0.362576H1000.59C975.261 3.41287 921.923 33.2854 921.923 86.6109V415C921.923 528.32 973.646 629.5 940.5 685C923.08 714.169 894.256 739.818 741.572 717.302C568.669 691.804 359.351 717.302 273.787 717.302H-49V0.362576H1000.59Z" fill="white"/>
</svg>
